^D:\MARIA\UE4\HW19_\HW19\HW19\PCH.CPP
D:\MARIA\UE4\HW19_\HW19\HW19\DEBUG\HW19.PCH
D:\MARIA\UE4\HW19_\HW19\HW19\DEBUG\VC141.PDB
D:\MARIA\UE4\HW19_\HW19\HW19\DEBUG\VC141.IDB
D:\MARIA\UE4\HW19_\HW19\HW19\DEBUG\PCH.OBJ
^D:\MARIA\UE4\HW19_\HW19\HW19\HW19.CPP
D:\MARIA\UE4\HW19_\HW19\HW19\DEBUG\VC141.PDB
D:\MARIA\UE4\HW19_\HW19\HW19\DEBUG\VC141.IDB
D:\MARIA\UE4\HW19_\HW19\HW19\DEBUG\HW19.OBJ
